<?xml version="1.0" encoding="UTF-8"?>
<svg xmlns="http://www.w3.org/2000/svg" xmlns:xlink="http://www.w3.org/1999/xlink" viewBox="0 0 546 546" version="1.1">
<g id="surface1">
<path style=" stroke:none;fill-rule:nonzero;fill:rgb(83.137255%,0%,0%);fill-opacity:1;" d="M 407.75 200.699219 C 405.347656 193.964844 404.648438 183.542969 405.902344 173.269531 C 407.425781 160.828125 406.753906 155.253906 403.207031 150.914062 C 394.089844 139.753906 396.859375 134.886719 412.335938 134.886719 C 429.085938 134.886719 432.328125 138.367188 425.09375 148.589844 C 421.070312 154.273438 420.09375 160.320312 421.203125 172.621094 C 423.617188 199.367188 414.25 218.921875 407.75 200.699219 Z M 407.75 200.699219 "/>
<path style=" stroke:none;fill-rule:nonzero;fill:rgb(100%,58.431373%,0%);fill-opacity:1;" d="M 9.21875 239.480469 C 9.3125 225.203125 31.078125 178.347656 47.125 157.886719 C 75.445312 121.773438 129.859375 89.664062 178.949219 80.097656 C 192.574219 77.441406 204.253906 74.90625 204.902344 74.457031 C 205.550781 74.011719 200.183594 67.441406 192.96875 59.855469 C 185.753906 52.269531 179.011719 42.972656 177.988281 39.191406 C 175.761719 30.976562 181.53125 23.613281 190.203125 23.613281 C 199.0625 23.613281 262.25 82.574219 262.25 90.835938 C 262.25 99.355469 206.847656 151.25 194.753906 154.058594 C 188.527344 155.503906 184.320312 154.785156 180.984375 151.695312 C 174.367188 145.570312 177.960938 136.796875 193.472656 121.222656 C 200.488281 114.175781 205.476562 107.714844 204.558594 106.863281 C 201.363281 103.90625 159.949219 114.558594 139.1875 123.675781 C 107.824219 137.449219 71.773438 172.175781 52.316406 207.359375 C 44.074219 222.253906 36.175781 234.445312 34.761719 234.445312 C 33.347656 234.445312 27.007812 237.699219 20.675781 241.675781 L 9.160156 248.910156 Z M 9.21875 239.480469 "/>
<path style=" stroke:none;fill-rule:nonzero;fill:rgb(100%,58.431373%,0%);fill-opacity:1;" d="M 342.21875 533.488281 C 321.328125 518.203125 287.558594 483.578125 287.558594 477.441406 C 287.558594 470.625 337.765625 421.625 352.039062 414.511719 C 362.59375 409.25 363.8125 409.183594 368.613281 413.628906 C 376.039062 420.5 372.117188 431.378906 356.589844 446.972656 C 349.433594 454.15625 344.140625 460.488281 344.832031 461.042969 C 345.519531 461.597656 355.019531 460.328125 365.9375 458.222656 C 420.554688 447.695312 467.855469 412.863281 494.285156 363.71875 C 502.382812 348.660156 509.011719 334.527344 509.011719 332.320312 C 509.011719 330.109375 516.484375 323.632812 525.621094 317.925781 C 544.867188 305.898438 546.300781 307.324219 540.59375 332.777344 C 534.394531 360.425781 508.710938 403.78125 484.097656 428.144531 C 451.820312 460.105469 428.753906 471.160156 351.269531 491.816406 C 343.914062 493.777344 344.03125 494.0625 358.386719 509.628906 C 374.0625 526.625 374.578125 527.804688 369.898438 535.898438 C 364.367188 545.46875 357.8125 544.898438 342.21875 533.488281 Z M 342.21875 533.488281 "/>
<path style=" stroke:none;fill-rule:nonzero;fill:rgb(100%,58.431373%,0%);fill-opacity:1;" d="M 380.027344 111.457031 C 366.710938 103.9375 351.648438 81.898438 349.105469 66.210938 C 345.816406 45.898438 359.449219 22.425781 381.914062 9.71875 C 390.421875 4.910156 398.453125 3.144531 411.855469 3.132812 C 450.21875 3.101562 477.289062 27.988281 477.359375 63.351562 C 477.386719 78.527344 461.699219 103.25 447.320312 110.679688 C 430.113281 119.574219 395.125 119.976562 380.027344 111.457031 Z M 380.027344 111.457031 "/>
<path style=" stroke:none;fill-rule:nonzero;fill:rgb(100%,58.431373%,0%);fill-opacity:1;" d="M 301.042969 286.886719 C 294.394531 285.0625 290.160156 281.710938 288.972656 277.335938 C 287.96875 273.628906 287.59375 246.742188 288.144531 217.585938 C 289.265625 157.871094 290.515625 154.300781 314.746094 141.570312 C 328.238281 134.484375 354.496094 128.269531 361.074219 130.605469 C 363.351562 131.414062 374.328125 153.796875 385.46875 180.34375 C 396.609375 206.890625 408.285156 230.757812 411.417969 233.378906 C 418.039062 238.925781 414.699219 245.066406 442.707031 175.878906 C 454.332031 147.167969 462.871094 130.152344 465.957031 129.566406 C 473.160156 128.195312 507.84375 136.972656 516.882812 142.453125 C 521.191406 145.066406 527.945312 152.007812 531.890625 157.882812 C 538.679688 167.988281 539.066406 171.496094 539.066406 223.351562 C 539.066406 272.03125 538.4375 278.730469 533.421875 283.378906 C 528.242188 288.183594 518.824219 288.660156 419.53125 289.15625 C 357.710938 289.464844 306.894531 288.492188 301.042969 286.886719 Z M 301.042969 286.886719 "/>
<path style=" stroke:none;fill-rule:nonzero;fill:rgb(100%,58.431373%,0%);fill-opacity:1;" d="M 82.035156 439.609375 C 80.234375 436.496094 78.761719 430.660156 78.761719 426.644531 C 78.761719 413.878906 72.105469 410.613281 53.347656 414.167969 C 37.1875 417.234375 36.753906 417.132812 29.382812 408.589844 C 25.25 403.804688 17.628906 392.523438 12.4375 383.523438 L 3.003906 367.15625 L 12.683594 358.632812 C 29.679688 343.660156 30.160156 340.554688 17.367188 328.429688 C 11.113281 322.5 5.996094 316.015625 5.996094 314.015625 C 5.996094 309.46875 20.511719 282.605469 28.949219 271.535156 C 35.058594 263.523438 35.925781 263.308594 54.238281 265.273438 C 75.152344 267.523438 78.625 265.558594 78.710938 251.449219 C 78.789062 238.90625 89.003906 234.445312 117.636719 234.445312 C 145.542969 234.445312 154.667969 237.53125 154.730469 246.992188 C 154.800781 257.648438 158.183594 266.144531 163.042969 267.871094 C 165.554688 268.765625 174.125 267.878906 182.085938 265.910156 C 196.398438 262.367188 196.660156 262.429688 204.890625 271.578125 C 209.46875 276.667969 217.472656 288.136719 222.679688 297.070312 L 232.144531 313.304688 L 203.988281 339.859375 L 218.066406 353.140625 L 232.148438 366.417969 L 221.8125 384.871094 C 216.128906 395.015625 207.492188 406.851562 202.625 411.171875 C 193.898438 418.910156 193.5625 418.960938 180.109375 414.566406 C 163.4375 409.121094 159.167969 411.574219 155.511719 428.683594 C 152.460938 442.96875 148.480469 444.378906 109.714844 444.929688 C 88.601562 445.226562 84.867188 444.511719 82.035156 439.609375 Z M 82.035156 439.609375 "/>
<path style=" stroke:none;fill-rule:nonzero;fill:rgb(100%,100%,100%);fill-opacity:1;" d="M 140.765625 362.113281 C 149.300781 354.214844 151.523438 349.8125 151.523438 340.804688 C 151.523438 310.949219 115.253906 297.859375 92.757812 319.589844 C 85.320312 326.777344 83.503906 331.125 83.503906 341.757812 C 83.503906 352.992188 85.058594 356.265625 93.835938 363.523438 C 108.964844 376.039062 126.285156 375.515625 140.765625 362.113281 Z M 140.765625 362.113281 "/>
</g>
</svg>
