[
    {
        "fieldName": "batchDetailMoreOptions",
        "level": 1,
        "type": "BTN",
        "checkHideByChildren": true,
        "values": [
            {
                "fieldName": "batchDetailOptionEdit",
                "type": "BTN",
                "level": 2
            },
            {
                "fieldName": "batchDetailOptionAccept",
                "type": "BTN",
                "level": 2
            },
            {
                "fieldName": "batchDetailOptionDeposit",
                "type": "BTN",
                "level": 2
            },
            {
                "fieldName": "batchDetailoptionAcceptAndDeposit",
                "type": "BTN",
                "level": 2
            }
        ]
    }
]
