[
    {
        "fieldName": "chooseAPaymentMethodSection",
        "level": 1,
        "values": [
            {
                "fieldName": "addNewCardOrBankAccount",
                "type": "BTN",
                "level": 2
            }
        ]
    }
]
