[
    {
        "fieldName": "paymentReceived",
        "level": 1,
        "values": [
            {
                "fieldName": "payor",
                "type": "RBT",
                "level": 2
            },
            {
                "fieldName": "accountNumber",
                "type": "RBT",
                "level": 2
            },
            {
                "fieldName": "paymentDate",
                "type": "RBT",
                "level": 2
            },
            {
                "fieldName": "printReceipt",
                "type": "BTN",
                "level": 2
            },
            {
                "fieldName": "emailReceipt",
                "type": "BTN",
                "level": 2
            }
        ]
    }
]
