<svg xmlns="http://www.w3.org/2000/svg" xmlns:xlink="http://www.w3.org/1999/xlink" version="1.1" id="Capa_1" x="0px" y="0px" viewBox="0 0 508 508" style="enable-background:new 0 0 508 508;" xml:space="preserve" width="64" height="64" class="">
 <g>
  <title>background</title>
  <rect fill="none" id="canvas_background" height="402" width="582" y="-1" x="-1"/>
 </g>
 <g>
  <title>Layer 1</title>
  <g id="svg_1">
   <path id="svg_2" fill="#56ACE0" class="active-path" d="m78,443.2c-22.9,0 -42.3,15.6 -48.1,36.7l96.1,0c-5.7,-21.2 -25,-36.7 -48,-36.7z"/>
   <path id="svg_3" fill="#FC0F0F" d="m254,443.2c-22.9,0 -42.3,15.6 -48.1,36.7l96.1,0c-5.7,-21.2 -25.1,-36.7 -48,-36.7z"/>
   <path id="svg_4" fill="#56ACE0" class="active-path" d="m430,443.2c-22.9,0 -42.3,15.6 -48.1,36.7l96.1,0c-5.7,-21.2 -25.1,-36.7 -48,-36.7z"/>
   <g id="svg_5">
    <path id="svg_6" fill="#000000" d="m78,414.9c-43,0 -78,35 -78,78l0,1c0,7.8 6.3,14.1 14.1,14.1l127.9,0c7.8,0 14.1,-6.3 14.1,-14.1l0,-1c0,-43 -35,-78 -78.1,-78zm-48,65c5.8,-21.1 25.1,-36.7 48.1,-36.7s42.3,15.6 48.1,36.7l-96.2,0z"/>
    <path id="svg_7" fill="#000000" d="m254,414.9c-43,0 -78,35 -78,78l0,1c0,7.8 6.3,14.1 14.1,14.1l127.9,0c7.8,0 14.1,-6.3 14.1,-14.1l0,-1c-0.1,-43 -35.1,-78 -78.1,-78zm-48.1,65c5.8,-21.1 25.1,-36.7 48.1,-36.7c22.9,0 42.3,15.6 48.1,36.7l-96.2,0z"/>
    <path id="svg_8" fill="#000000" d="m430,414.9c-43,0 -78,35 -78,78l0,1c0,7.8 6.3,14.1 14.1,14.1l127.9,0c7.8,0 14.1,-6.3 14.1,-14.1l0,-1c-0.1,-43 -35.1,-78 -78.1,-78zm-48.1,65c5.8,-21.1 25.1,-36.7 48.1,-36.7s42.3,15.6 48.1,36.7l-96.2,0z"/>
   </g>
   <g id="svg_9">
    <path id="svg_10" fill="#FFC10D" d="m254,228.5c55.2,0 100.1,-44.9 100.1,-100.1s-44.9,-100.1 -100.1,-100.1s-100.1,44.9 -100.1,100.1s44.9,100.1 100.1,100.1z"/>
   </g>
   <g id="svg_14">
    <path id="svg_15" fill="#000000" d="m444.1,314.7l0,-25.7c0,-7.8 -6.3,-14.1 -14.1,-14.1l-161.9,0l0,-19c64.1,-7.1 114.2,-61.5 114.2,-127.5c0,-70.7 -57.5,-128.3 -128.3,-128.3s-128.3,57.6 -128.3,128.3c0,66 50.1,120.4 114.2,127.5l0,19l-161.9,0c-7.8,0 -14.1,6.3 -14.1,14.1l0,25.7c-18.3,6 -31.6,23.2 -31.6,43.5c0,25.2 20.5,45.7 45.7,45.7s45.7,-20.5 45.7,-45.7c0,-20.3 -13.3,-37.5 -31.6,-43.5l0,-11.6l147.7,0l0,11.6c-18.3,6 -31.6,23.2 -31.6,43.5c0,25.2 20.5,45.7 45.7,45.7s45.7,-20.5 45.7,-45.7c0,-20.3 -13.3,-37.5 -31.6,-43.5l0,-11.6l147.7,0l0,11.6c-18.3,6 -31.6,23.2 -31.6,43.5c0,25.2 20.5,45.7 45.7,45.7s45.7,-20.5 45.7,-45.7c0.2,-20.3 -13.1,-37.5 -31.4,-43.5zm-366.1,61c-9.7,0 -17.5,-7.9 -17.5,-17.5c0,-9.7 7.9,-17.5 17.5,-17.5c9.7,0 17.5,7.9 17.5,17.5c0,9.7 -7.8,17.5 -17.5,17.5zm176,0c-9.7,0 -17.5,-7.9 -17.5,-17.5c0,-9.7 7.9,-17.5 17.5,-17.5c9.7,0 17.5,7.9 17.5,17.5c0,9.7 -7.8,17.5 -17.5,17.5zm0,-347.4c55.2,0 100.1,44.9 100.1,100.1s-44.9,100.1 -100.1,100.1s-100.1,-44.9 -100.1,-100.1s44.9,-100.1 100.1,-100.1zm176,347.4c-9.7,0 -17.5,-7.9 -17.5,-17.5c0,-9.7 7.9,-17.5 17.5,-17.5s17.5,7.9 17.5,17.5c0,9.7 -7.9,17.5 -17.5,17.5z"/>
    <path id="svg_16" fill="#000000" d="m268.1,205.2l0,-6.3c17.1,-5.9 29.4,-22.1 29.4,-41.1c0,-24 -19.5,-43.5 -43.5,-43.5c-8.4,0 -15.3,-6.9 -15.3,-15.3s6.9,-15.3 15.3,-15.3c6.2,0 11.7,3.7 14.1,9.3c3,7.2 11.3,10.5 18.5,7.5s10.5,-11.3 7.5,-18.5c-4.9,-11.6 -14.5,-20.2 -26,-24.1l0,-6.3c0,-7.8 -6.3,-14.1 -14.1,-14.1c-7.8,0 -14.1,6.3 -14.1,14.1l0,6.3c-17.1,5.9 -29.4,22.1 -29.4,41.1c0,24 19.5,43.5 43.5,43.5c8.4,0 15.3,6.9 15.3,15.3c0,8.4 -6.9,15.3 -15.3,15.3c-6.8,0 -12.6,-4.3 -14.6,-10.8c-2.3,-7.5 -10.2,-11.6 -17.6,-9.3c-7.4,2.3 -11.6,10.2 -9.3,17.6c4.2,13.7 14.5,24 27.5,28.4l0,6.3c0,7.8 6.3,14.1 14.1,14.1c7.7,-0.1 14,-6.4 14,-14.2z"/>
   </g>
  </g>
 </g>
</svg>