{
    "base-font-size": "13px",
    "default-theme": "secondary-theme",
    "themes-list": {
        "primary-theme": {
            "theme-display-name": "Summer Sky",
            "active": "true",
            "base-font-family": "LatoRegular",
            "primary-color": "#0078d7",
            "secondary-color": "#FFFFFF",
            "success-color": "#DBF1C4",
            "info-color": "#CEE0F5",
            "warning-color": "#FCF2BD",
            "danger-color": "#F9CFCF",
            "disable-color": "#ced4da",
            "hover-color": "#cce4f7",
            "common-colors": {
                "light-grey-color": "#D9D9D9",
                "dark-grey-color": "#666666",
                "light-green-color": "#31fca7",
                "light-red-color": "#f6463d",
                "light-blue-color": "#45c6ff",
                "light-purple-color": "#c0a6ff",
                "light-yellow-color": "#FFED00",
                "dark-yellow-color": "#FCF2BD",
                "dark-green-color": "#26c281",
                "dark-red-color": "#bd362f",
                "dark-blue-color": "#3598DC",
                "dark-orange-color": "#f89406",
                "dark-purple-color": "#9480e0"
            },
            "components-colors": {
                "button-colors": {
                    "button-text-color": "#FFFFFF",
                    "button-background-color": "#0078d7",
                    "button-outline-color": "#0e74c5",
                    "button-hover-background-color": "#0e74c5",
                    "button-hover-border-color": "#0e74c5",
                    "button-hover-text-color": "#FFFFFF"
                },
                "form": {
                    "error-msg-color": "#bd362f"
                },
                "link": {
                    "link-decoration": "false",
                    "link-hover-decoration": "false",
                    "link-color": "#0078d7",
                    "link-hover-color": "#0078d7",
                    "link-visited-color": "#0078d7"
                },
                "checkbox": {
                    "checked-checkmark-color": "#60b515",
                    "checked-indicator-color": "#FFFFFF",
                    "checked-border-color": "#555"
                },
                "toggle": {
                    "toggle-uncheck-color": "#FFFFFF",
                    "toggle-uncheck-background-color": "#0078d7",
                    "toggle-checked-color": "#0078d7",
                    "toggle-checked-background-color": "#FFFFFF"
                },
                "date-picker": {
                    "date-picker-caltable-color": "#036",
                    "date-picker-selectedday-background-color": "#8EBFFF",
                    "date-picker-selectedday-color": "#036"
                },
                "tabs": {
                    "tabs-background-color": "#FFFFFF",
                    "tabs-active-background-color": "#0078d7",
                    "tabs-active-text-color": "#FFFFFF",
                    "tabs-underlined-color": "#0078d7",
                    "tabs-active-border-color": "#26c281",
                    "tabs-border-color": "#dff0d8"
                },
                "table": {
                    "table-parent-header-background-color": "#a2b8ec",
                    "table-header-background-color": "#e1e7f9"
                },
                "header": {
                    "header-background-color": "#0078d7",
                    "header-text-color": "#FFFFFF"
                }
            }
        },
        "secondary-theme": {
            "theme-display-name": "DXC Theme",
            "active": "true",
            "base-font-family": "Open Sans",
            "primary-color": "#6F2C91",
            "secondary-color": "#FFFFFF",
            "success-color": "#DBF1C4",
            "info-color": "#CEE0F5",
            "warning-color": "#FCF2BD",
            "danger-color": "#F9CFCF",
            "disable-color": "#ced4da",
            "hover-color": "#D9D9D9",
            "common-colors": {
                "light-grey-color": "#D9D9D9",
                "dark-grey-color": "#666666",
                "light-green-color": "#64ff00",
                "light-red-color": "#FF6161",
                "light-blue-color": "#00c9ff",
                "light-purple-color": "#c0a6ff",
                "light-yellow-color": "#FFED00",
                "dark-green-color": "#26c281",
                "dark-yellow-color": "#FCF2BD",
                "dark-red-color": "#bd362f",
                "dark-blue-color": "#3598DC",
                "dark-orange-color": "#f89406",
                "dark-purple-color": "#9480e0"
            },
            "components-colors": {
                "button-colors": {
                    "button-text-color": "#FFFFFF",
                    "button-background-color": "#6F2C91",
                    "button-outline-color": "#000000",
                    "button-hover-background-color": "#FFFFFF",
                    "button-hover-border-color": "#6F2C91",
                    "button-hover-text-color": "#000000"
                },
                "form": {
                    "error-msg-color": "#D0011B",
                    "focus-shadow-color": "#51cbee"
                },
                "link": {
                    "link-decoration": "false",
                    "link-hover-decoration": "true",
                    "link-color": "#006BF6",
                    "link-hover-color": "#006BF6",
                    "link-visited-color": "#006BF6"
                },
                "checkbox": {
                    "checked-checkmark-color": "#0067B3",
                    "checked-indicator-color": "#FFFFFF",
                    "checked-border-color": "#0067B3"
                },
                "toggle": {
                    "toggle-uncheck-color": "#FFFFFF",
                    "toggle-uncheck-background-color": "#6F2C91",
                    "toggle-checked-color": "#6F2C91",
                    "toggle-checked-background-color": "#FFFFFF"
                },
                "date-picker": {
                    "date-picker-caltable-color": "#000000",
                    "date-picker-selectedday-background-color": "#6F2C91",
                    "date-picker-selectedday-color": "#FFFFFF"
                },
                "tabs": {
                    "tabs-background-color": "#D9D9D9",
                    "tabs-active-background-color": "#6F2C91",
                    "tabs-active-text-color": "#FFFFFF",
                    "tabs-underlined-color": "#000000",
                    "tabs-active-border-color": "#6F2C91",
                    "tabs-border-color": "#D9D9D9"
                },
                "table": {
                    "table-parent-header-background-color": "#666666",
                    "table-header-background-color": "#666666"
                },
                "header": {
                    "header-background-color": "#6F2C91",
                    "header-text-color": "#FFFFFF"
                }
            }
        },
        "other-theme": {
            "theme-display-name": "Light",
            "active": "true",
            "base-font-family": "Open Sans",
            "primary-color": "#a2b8ec",
            "secondary-color": "#FFFFFF",
            "success-color": "#DBF1C4",
            "info-color": "#CEE0F5",
            "warning-color": "#FCF2BD",
            "danger-color": "#F9CFCF",
            "disable-color": "#ced4da",
            "hover-color": "#ecf0fb",
            "common-colors": {
                "light-grey-color": "#D9D9D9",
                "dark-grey-color": "#666666",
                "light-green-color": "#31fca7",
                "light-red-color": "#f6463d",
                "light-blue-color": "#45c6ff",
                "light-purple-color": "#c0a6ff",
                "light-yellow-color": "#FFED00",
                "dark-yellow-color": "#FCF2BD",
                "dark-green-color": "#26c281",
                "dark-red-color": "#bd362f",
                "dark-blue-color": "#3598DC",
                "dark-orange-color": "#f89406",
                "dark-purple-color": "#9480e0"
            },
            "components-colors": {
                "button-colors": {
                    "button-text-color": "#FFFFFF",
                    "button-background-color": "#a2b8ec",
                    "button-outline-color": "#a2b8ec",
                    "button-hover-background-color": "#a2b8ec",
                    "button-hover-border-color": "#a2b8ec",
                    "button-hover-text-color": "#FFFFFF"
                },
                "form": {
                    "error-msg-color": "#D0011B"
                },
                "link": {
                    "link-decoration": "false",
                    "link-hover-decoration": "true",
                    "link-color": "#a2b8ec",
                    "link-hover-color": "#a2b8ec",
                    "link-visited-color": "#a2b8ec"
                },
                "checkbox": {
                    "checked-checkmark-color": "#FFED00",
                    "checked-indicator-color": "#000000",
                    "checked-border-color": "#555"
                },
                "toggle": {
                    "toggle-uncheck-color": "#FFFFFF",
                    "toggle-uncheck-background-color": "#a2b8ec",
                    "toggle-checked-color": "#a2b8ec",
                    "toggle-checked-background-color": "#FFFFFF"
                },
                "date-picker": {
                    "date-picker-caltable-color": "#036",
                    "date-picker-selectedday-background-color": "#8EBFFF",
                    "date-picker-selectedday-color": "#036"
                },
                "tabs": {
                    "tabs-background-color": "#FFFFFF",
                    "tabs-active-background-color": "#a2b8ec",
                    "tabs-active-text-color": "#FFFFFF",
                    "tabs-underlined-color": "#a2b8ec",
                    "tabs-active-border-color": "#26c281",
                    "tabs-border-color": "#dff0d8"
                },
                "table": {
                    "table-parent-header-background-color": "#FFFFFF",
                    "table-header-background-color": "#FFFFFF"
                },
                "header": {
                    "header-background-color": "#a2b8ec",
                    "header-text-color": "#FFFFFF"
                }
            }
        },
        "other-theme2": {
            "theme-display-name": "Dark Blue",
            "active": "true",
            "base-font-family": "Open Sans",
            "primary-color": "#003087",
            "secondary-color": "#FFFFFF",
            "success-color": "#DBF1C4",
            "info-color": "#CEE0F5",
            "warning-color": "#FCF2BD",
            "danger-color": "#F9CFCF",
            "disable-color": "#ced4da",
            "hover-color": "#D9D9D9",
            "common-colors": {
                "light-grey-color": "#D9D9D9",
                "dark-grey-color": "#666666",
                "light-green-color": "#64ff00",
                "light-red-color": "#FF6161",
                "light-blue-color": "#00c9ff",
                "light-purple-color": "#c0a6ff",
                "light-yellow-color": "#FFED00",
                "dark-green-color": "#26c281",
                "dark-yellow-color": "#FCF2BD",
                "dark-red-color": "#bd362f",
                "dark-blue-color": "#3598DC",
                "dark-orange-color": "#f89406",
                "dark-purple-color": "#9480e0"
            },
            "components-colors": {
                "button-colors": {
                    "button-text-color": "#FFFFFF",
                    "button-background-color": "#003087",
                    "button-outline-color": "#000000",
                    "button-hover-background-color": "#FFFFFF",
                    "button-hover-border-color": "#003087",
                    "button-hover-text-color": "#000000"
                },
                "form": {
                    "error-msg-color": "#D0011B",
                    "focus-shadow-color": "#51cbee"
                },
                "link": {
                    "link-decoration": "false",
                    "link-hover-decoration": "true",
                    "link-color": "#006BF6",
                    "link-hover-color": "#006BF6",
                    "link-visited-color": "#006BF6"
                },
                "checkbox": {
                    "checked-checkmark-color": "#0067B3",
                    "checked-indicator-color": "#FFFFFF",
                    "checked-border-color": "#0067B3"
                },
                "toggle": {
                    "toggle-uncheck-color": "#FFFFFF",
                    "toggle-uncheck-background-color": "#003087",
                    "toggle-checked-color": "#003087",
                    "toggle-checked-background-color": "#FFFFFF"
                },
                "date-picker": {
                    "date-picker-caltable-color": "#000000",
                    "date-picker-selectedday-background-color": "#003087",
                    "date-picker-selectedday-color": "#FFFFFF"
                },
                "tabs": {
                    "tabs-background-color": "#D9D9D9",
                    "tabs-active-background-color": "#003087",
                    "tabs-active-text-color": "#FFFFFF",
                    "tabs-underlined-color": "#000000",
                    "tabs-active-border-color": "#003087",
                    "tabs-border-color": "#D9D9D9"
                },
                "table": {
                    "table-parent-header-background-color": "#666666",
                    "table-header-background-color": "#666666"
                },
                "header": {
                    "header-background-color": "#003087",
                    "header-text-color": "#FFFFFF"
                }
            }
        }
    }
}