<?xml version="1.0"?>
<svg xmlns="http://www.w3.org/2000/svg" xmlns:xlink="http://www.w3.org/1999/xlink" version="1.1" id="Capa_1" x="0px" y="0px" viewBox="0 0 515.2 515.2" style="enable-background:new 0 0 515.2 515.2;" xml:space="preserve" width="512px" height="512px" class=""><g><polygon style="fill:#FFFFFF;" points="316,8 8,8 8,504 424,504 424,116 " data-original="#FFFFFF" class=""/><path style="fill:#193651;" d="M432,512H0V0h319.2L432,112.8L432,512L432,512z M16,496h400V119.2L312.8,16H16V496z" data-original="#193651" class=""/><polygon style="fill:#FFBF5D;" points="52,460 52,52.8 296.8,52.8 379.2,136.8 379.2,460 " data-original="#FFBF5D"/><polygon style="fill:#E1E6E9;" points="296,136.8 380,136.8 296,52 " data-original="#E1E6E9" class="active-path"/><rect x="97.6" y="125.6" style="fill:#193651;" width="16" height="22.4" data-original="#193651" class=""/><rect x="158.4" y="125.6" style="fill:#193651;" width="16" height="22.4" data-original="#193651" class=""/><rect x="219.2" y="125.6" style="fill:#193651;" width="16" height="22.4" data-original="#193651" class=""/><rect x="338.868" y="362.096" transform="matrix(-0.5901 0.8073 -0.8073 -0.5901 876.2858 324.8899)" style="fill:#FFFFFF;" width="33.599" height="45.599" data-original="#FFFFFF" class=""/><path style="fill:#193651;" d="M365.6,423.2l-49.6-36l28.8-40l49.6,36L365.6,423.2z M338.4,384l24,17.6l10.4-14.4l-24-17.6  L338.4,384z" data-original="#193651" class=""/><path style="fill:#FFFFFF;" d="M142.4,229.6L142.4,229.6c-39.2,53.6-27.2,128.8,26.4,168.8l0,0c53.6,39.2,128.8,27.2,168.8-26.4l0,0  c39.2-53.6,27.2-128.8-26.4-168.8l0,0C256.8,164,181.6,176,142.4,229.6z" data-original="#FFFFFF" class=""/><path style="fill:#193651;" d="M239.2,428.8L239.2,428.8c-27.2,0-53.6-8.8-76-24.8c-28-20-45.6-50.4-51.2-84s3.2-68,23.2-95.2  c24-32.8,63.2-52.8,104-52.8c27.2,0,53.6,8.8,76,24.8c28,20,45.6,50.4,51.2,84s-3.2,68-23.2,95.2C319.2,409.6,280,428.8,239.2,428.8  z M240,188c-36,0-69.6,17.6-91.2,46.4c-17.6,24-24.8,53.6-20,84c4.8,29.6,20.8,56,44.8,73.6c19.2,14.4,42.4,21.6,66.4,21.6l0,0  c36,0,69.6-17.6,91.2-46.4c17.6-24,24.8-53.6,20-84c-4.8-29.6-20.8-56-44.8-73.6C286.4,195.2,264,188,240,188z" data-original="#193651" class=""/><path style="fill:#E1E6E9;" d="M239.2,388.8c-19.2,0-36.8-5.6-52-16.8c-39.2-28.8-48-84-19.2-124c16.8-22.4,43.2-36,71.2-36  c19.2,0,36.8,5.6,52,16.8c19.2,13.6,32,34.4,35.2,57.6c4,23.2-2.4,46.4-16,65.6C294.4,375.2,268,388.8,239.2,388.8L239.2,388.8z" data-original="#E1E6E9" class="active-path"/><rect x="403.971" y="369.844" transform="matrix(-0.5901 0.8073 -0.8073 -0.5901 1040.7134 352.9031)" style="fill:#FFFFFF;" width="53.599" height="141.597" data-original="#FFFFFF" class=""/><g>
	<path style="fill:#193651;" d="M473.6,515.2l-126.4-92.8l40.8-56l127.2,92.8L473.6,515.2z M368.8,418.4l101.6,74.4l22.4-30.4   L391.2,388L368.8,418.4z" data-original="#193651" class=""/>
	<path style="fill:#193651;" d="M272.8,325.6c0-18.4-15.2-32.8-32.8-32.8c-8.8,0-16-7.2-16-16s7.2-16,16-16s16,7.2,16,16h16.8   c0-15.2-10.4-28-24.8-32V232h-16.8v12.8c-14.4,4-24.8,16.8-24.8,32c0,18.4,15.2,32.8,32.8,32.8c8.8,0,16,7.2,16,16s-7.2,16-16,16   s-16-7.2-16-16h-16.8c0,15.2,10.4,28,24.8,32v12H248v-12.8C262.4,353.6,272.8,340.8,272.8,325.6z" data-original="#193651" class=""/>
</g></g> </svg>
