<?xml version="1.0"?>
<svg xmlns="http://www.w3.org/2000/svg" xmlns:xlink="http://www.w3.org/1999/xlink" version="1.1" id="Capa_1" x="0px" y="0px" viewBox="0 0 512 512" style="enable-background:new 0 0 512 512;" xml:space="preserve" width="512px" height="512px" class=""><g><rect x="32" y="110.4" style="fill:#D3D7DA;" width="447.2" height="320" data-original="#D3D7DA"/><path style="fill:#193651;" d="M488,438.4H24v-336h464V438.4z M40,422.4h432v-304H40V422.4z" data-original="#193651" class=""/><path style="fill:#FFFFFF;" d="M8,430.4L8,430.4h496l0,0c0,40.8-32.8,72.8-72.8,72.8H80.8C40.8,504,8,471.2,8,430.4z" data-original="#FFFFFF" class=""/><path style="fill:#193651;" d="M431.2,512H80.8C36.8,512,0,475.2,0,430.4v-8h512v8C512,475.2,475.2,512,431.2,512z M16.8,438.4  c4,32,31.2,56.8,64.8,56.8h349.6c33.6,0,60.8-24.8,64.8-56.8H16.8z" data-original="#193651" class=""/><rect x="64" y="142.4" style="fill:#FFFFFF;" width="383.2" height="256" data-original="#FFFFFF" class=""/><g>
	<rect x="236.8" y="459.2" style="fill:#193651;" width="38.4" height="16" data-original="#193651" class=""/>
	<rect x="188" y="459.2" style="fill:#193651;" width="17.6" height="16" data-original="#193651" class=""/>
	<rect x="306.4" y="459.2" style="fill:#193651;" width="17.6" height="16" data-original="#193651" class=""/>
</g><path style="fill:#FFFFFF;" d="M256,89.6L256,89.6c-68,0-122.4,108.8-122.4,165.6l0,0c0,56.8,55.2,102.4,122.4,102.4l0,0  c68,0,122.4-45.6,122.4-102.4l0,0C378.4,198.4,324,89.6,256,89.6z" data-original="#FFFFFF" class=""/><path style="fill:#193651;" d="M256,365.6c-72,0-130.4-49.6-130.4-110.4c0-57.6,56.8-173.6,130.4-173.6s130.4,115.2,130.4,173.6  C386.4,316,328,365.6,256,365.6z M256,97.6c-62.4,0-114.4,104-114.4,157.6c0,52,51.2,94.4,114.4,94.4s114.4-42.4,114.4-94.4  C370.4,201.6,318.4,97.6,256,97.6z" data-original="#193651" class=""/><path style="fill:#FFBF5D;" d="M256,316c-45.6,0-82.4-28.8-82.4-64.8c0-41.6,42.4-120,82.4-120s82.4,77.6,82.4,120  C338.4,286.4,301.6,316,256,316z" data-original="#FFBF5D" class="active-path"/><path style="fill:#FFFFFF;" d="M256,89.6c14.4,0,27.2,4.8,40,12.8l22.4-80.8l0,0c-40-18.4-85.6-18.4-125.6,0l23.2,80.8  C228.8,94.4,241.6,89.6,256,89.6L256,89.6z" data-original="#FFFFFF" class=""/><g>
	<path style="fill:#193651;" d="M300.8,115.2l-8.8-5.6c-24-15.2-48-15.2-72,0l-8.8,5.6L184,17.6l6.4-3.2c40.8-19.2,91.2-19.2,132,0   l5.6,3.2L300.8,115.2z M256,81.6c12,0,23.2,3.2,35.2,8.8l17.6-64c-33.6-13.6-72.8-13.6-106.4,0l17.6,64   C232.8,84.8,244,81.6,256,81.6z" data-original="#193651" class=""/>
	<path style="fill:#193651;" d="M256,221.6c-6.4,0-12-5.6-12-12s5.6-12,12-12s12,5.6,12,12h12.8c0-11.2-8-20.8-18.4-23.2v-9.6h-12.8   v9.6c-10.4,2.4-18.4,12-18.4,23.2c0,13.6,11.2,24.8,24.8,24.8c6.4,0,12,5.6,12,12s-5.6,12-12,12s-12-5.6-12-12h-12.8   c0,11.2,8,20.8,18.4,23.2v9.6h12.8v-9.6c10.4-2.4,18.4-12,18.4-23.2C280.8,232,269.6,221.6,256,221.6z" data-original="#193651" class=""/>
</g></g> </svg>
