<?xml version="1.0"?>
<svg xmlns="http://www.w3.org/2000/svg" xmlns:xlink="http://www.w3.org/1999/xlink" version="1.1" id="Capa_1" x="0px" y="0px" viewBox="0 0 512 512" style="enable-background:new 0 0 512 512;" xml:space="preserve" width="512px" height="512px"><g><path style="fill:#AAC4DA;" d="M416,96h-64c-11.767-0.035-21.298-9.566-21.333-21.333v-64L416,96z" data-original="#AAC4DA"/><path style="fill:#D9EEF7;" d="M416,96v384c-0.035,11.768-9.566,21.298-21.333,21.333H53.333C41.566,501.298,32.035,491.768,32,480  V32c0.035-11.767,9.566-21.298,21.333-21.333h277.333v64C330.702,86.434,340.233,95.965,352,96H416z" data-original="#D9EEF7"/><circle style="fill:#FFE451;" cx="320" cy="341.333" r="160" data-original="#FFE451"/><g>
	<path style="fill:#4C5B66;" d="M85.333,64H192v21.333H85.333V64z" data-original="#4C5B66"/>
	<path style="fill:#4C5B66;" d="M85.333,106.667h21.333V128H85.333V106.667z" data-original="#4C5B66"/>
	<path style="fill:#4C5B66;" d="M128,106.667h21.333V128H128V106.667z" data-original="#4C5B66"/>
	<path style="fill:#4C5B66;" d="M42.667,32c0-5.891,4.776-10.667,10.667-10.667H320v53.333c0,17.673,14.327,32,32,32h21.333V85.333   H352c-5.891,0-10.667-4.776-10.667-10.667V36.416l64,64v70.251h21.333V96c-0.001-2.829-1.125-5.541-3.125-7.541L338.208,3.125   c-2-2.001-4.713-3.125-7.541-3.125H53.333c-17.673,0-32,14.327-32,32l0,0v160h21.333V32z" data-original="#4C5B66"/>
	<path style="fill:#4C5B66;" d="M42.667,480V277.333H21.333V480c0,17.673,14.327,32,32,32h149.333v-21.333H53.333   C47.442,490.667,42.667,485.891,42.667,480z" data-original="#4C5B66"/>
	<path style="fill:#4C5B66;" d="M320,170.667V192c82.475,0,149.333,66.859,149.333,149.333S402.475,490.667,320,490.667   s-149.333-66.859-149.333-149.333h-21.333C149.333,435.59,225.743,512,320,512s170.667-76.41,170.667-170.667   S414.257,170.667,320,170.667z" data-original="#4C5B66"/>
	<path style="fill:#4C5B66;" d="M309.333,266.667V288h-10.667c-11.782,0-21.333,9.551-21.333,21.333v21.333   c0,11.782,9.551,21.333,21.333,21.333h42.667v21.333h-42.667v-10.667h-21.333v10.667c0,11.782,9.551,21.333,21.333,21.333h10.667   V416h21.333v-21.333h10.667c11.782,0,21.333-9.551,21.333-21.333V352c0-11.782-9.551-21.333-21.333-21.333h-42.667v-21.333h42.667   V320h21.333v-10.667c0-11.782-9.551-21.333-21.333-21.333h-10.667v-21.333H309.333z" data-original="#4C5B66"/>
	<path style="fill:#4C5B66;" d="M213.333,330.667h21.333V352h-21.333V330.667z" data-original="#4C5B66"/>
	<path style="fill:#4C5B66;" d="M405.333,330.667h21.333V352h-21.333V330.667z" data-original="#4C5B66"/>
	<path style="fill:#4C5B66;" d="M242.208,274.208l42.667-42.667l-15.083-15.083l-24.459,24.459V192   c0.502-17.171-13.01-31.498-30.181-32c-0.606-0.018-1.213-0.018-1.819,0H106.667v21.333h106.667   c5.365-0.527,10.14,3.395,10.667,8.76c0.062,0.634,0.062,1.273,0,1.907v48.917l-24.459-24.459l-15.083,15.083l42.667,42.667   C231.291,278.372,238.043,278.372,242.208,274.208L242.208,274.208z" data-original="#4C5B66"/>
	<path style="fill:#4C5B66;" d="M96,309.333h106.667V288H96c-5.365,0.527-10.14-3.395-10.667-8.76c-0.062-0.634-0.062-1.273,0-1.907   v-48.917l24.459,24.459l15.083-15.083l-42.667-42.667c-4.165-4.164-10.917-4.164-15.083,0l-42.667,42.667l15.083,15.083L64,228.416   v48.917c-0.502,17.171,13.01,31.498,30.181,32C94.787,309.351,95.394,309.351,96,309.333L96,309.333z" data-original="#4C5B66"/>
</g></g> </svg>
