<?xml version="1.0"?>
<svg xmlns="http://www.w3.org/2000/svg" xmlns:xlink="http://www.w3.org/1999/xlink" version="1.1" id="Capa_1" x="0px" y="0px" viewBox="0 0 512 512" style="enable-background:new 0 0 512 512;" xml:space="preserve" width="512px" height="512px" class=""><g><rect x="413.6" y="270.4" style="fill:#193651;" width="16" height="16" data-original="#193651" class=""/><rect x="413.6" y="306.4" style="fill:#193651;" width="16" height="16" data-original="#193651" class=""/><rect x="413.6" y="342.4" style="fill:#193651;" width="16" height="16" data-original="#193651" class=""/><rect x="82.4" y="153.6" style="fill:#193651;" width="16" height="16" data-original="#193651" class=""/><rect x="82.4" y="189.6" style="fill:#193651;" width="16" height="16" data-original="#193651" class=""/><rect x="82.4" y="225.6" style="fill:#193651;" width="16" height="16" data-original="#193651" class=""/><rect x="170.4" y="8" style="fill:#FFFFFF;" width="333.6" height="199.2" data-original="#FFFFFF" class=""/><path style="fill:#193651;" d="M512,215.2H162.4V0H512V215.2z M178.4,199.2H496V16H178.4V199.2z" data-original="#193651" class=""/><rect x="8" y="304.8" style="fill:#FFFFFF;" width="333.6" height="199.2" data-original="#FFFFFF" class=""/><g>
	<path style="fill:#193651;" d="M349.6,512H0V296.8h349.6V512z M16,496h317.6V312.8H16V496z" data-original="#193651" class=""/>
	<path style="fill:#193651;" d="M463.2,431.2h-57.6v-16h57.6c18.4,0,32.8-14.4,32.8-32.8v-112h16v112   C512,408.8,490.4,431.2,463.2,431.2z" data-original="#193651" class=""/>
	<polygon style="fill:#193651;" points="426.4,455.2 394.4,423.2 426.4,391.2 437.6,402.4 416.8,423.2 437.6,444  " data-original="#193651" class=""/>
	<path style="fill:#193651;" d="M16,241.6H0v-112c0-27.2,21.6-48.8,48.8-48.8h57.6v16H48.8C30.4,96.8,16,112,16,129.6V241.6z" data-original="#193651" class=""/>
	<polygon style="fill:#193651;" points="85.6,120.8 74.4,109.6 95.2,88.8 74.4,68 85.6,56.8 117.6,88.8  " data-original="#193651" class=""/>
</g><path style="fill:#44C4A1;" d="M202.4,143.2V72c17.6,0,32-14.4,32-32H440c0,17.6,14.4,32,32,32v71.2c-17.6,0-32,14.4-32,32H234.4  C234.4,157.6,220,143.2,202.4,143.2z" data-original="#44C4A1"/><g>
	<circle style="fill:#FFFFFF;" cx="336.8" cy="108" r="50.4" data-original="#FFFFFF" class=""/>
	<circle style="fill:#FFFFFF;" cx="435.2" cy="108" r="9.6" data-original="#FFFFFF" class=""/>
	<circle style="fill:#FFFFFF;" cx="239.2" cy="108" r="9.6" data-original="#FFFFFF" class=""/>
</g><g>
	<path style="fill:#193651;" d="M336.8,136.8c-8.8,0-16.8-7.2-16.8-16.8h8.8c0,4.8,4,8,8,8c4.8,0,8-4,8-8c0-4.8-4-8-8-8   c-8.8,0-16.8-7.2-16.8-16.8s7.2-16.8,16.8-16.8c8.8,0,16.8,7.2,16.8,16.8h-8.8c0-4.8-4-8-8-8c-4.8,0-8,4-8,8c0,4.8,4,8,8,8   c8.8,0,16.8,7.2,16.8,16.8C353.6,129.6,346.4,136.8,336.8,136.8z" data-original="#193651" class=""/>
	<rect x="332.8" y="72.8" style="fill:#193651;" width="8.8" height="6.4" data-original="#193651" class=""/>
	<rect x="332.8" y="136" style="fill:#193651;" width="8.8" height="6.4" data-original="#193651" class=""/>
</g><path style="fill:#D3D7DA;" d="M40,440v-71.2c17.6,0,32-14.4,32-32h205.6c0,17.6,14.4,32,32,32V440c-17.6,0-32,14.4-32,32H72  C72,454.4,57.6,440,40,440z" data-original="#D3D7DA" class="active-path"/><g>
	<circle style="fill:#FFFFFF;" cx="175.2" cy="404" r="50.4" data-original="#FFFFFF" class=""/>
	<circle style="fill:#FFFFFF;" cx="272.8" cy="404" r="9.6" data-original="#FFFFFF" class=""/>
	<circle style="fill:#FFFFFF;" cx="76.8" cy="404" r="9.6" data-original="#FFFFFF" class=""/>
</g><g>
	<path style="fill:#193651;" d="M175.2,433.6c-8.8,0-16.8-7.2-16.8-16.8h8.8c0,4.8,4,8,8,8c4.8,0,8-4,8-8s-4-8-8-8   c-8.8,0-16.8-7.2-16.8-16.8c0-8.8,7.2-16.8,16.8-16.8c8.8,0,16.8,7.2,16.8,16.8h-8.8c0-4.8-4-8-8-8c-4.8,0-8,4-8,8c0,4.8,4,8,8,8   c8.8,0,16.8,7.2,16.8,16.8S184,433.6,175.2,433.6z" data-original="#193651" class=""/>
	<rect x="170.4" y="369.6" style="fill:#193651;" width="8.8" height="6.4" data-original="#193651" class=""/>
	<rect x="170.4" y="432.8" style="fill:#193651;" width="8.8" height="6.4" data-original="#193651" class=""/>
</g></g> </svg>
