{
    "headers": {
        "defaultHeader": {
            "Content-Type": "application/json",
            "Accept": "application/json",
            "Accept-Language": "EN",
            "Cache-Control": "no-cache",
            "Pragma": "no-cache",
            "Expires": "Sat, 01 Jan 2000 00:00:00 GMT"
        },
        "pdfHeaders": {
            "Accept": "application/pdf",
            "Accept-Language": "EN"
        },
        "fileHeaders": {
            "Accept": "application/octet-stream,application/json",
            "Content-Type": "application/octet-stream;charset=UTF-8",
            "Accept-Language": "EN",
            "Cache-Control": "no-cache",
            "Pragma": "no-cache",
            "Expires": "Sat, 01 Jan 2000 00:00:00 GMT"
        },
        "contentHeaders": {
            "Content-Type": "application/json",
            "Accept": "application/hal+json",
            "Authorization": "Basic c3lzYWRtaW46c3lzcHdk",
            "Accept-Language": "EN"
        },
        "forgerockHeaders": {
            "Content-Type": "application/json",
            "X-IBM-Client-ID": "dc1809ba-d09f-4d9f-ae9c-304a7ff6fc88",
            "X-IBM-Client-Secret": "pK8eC3cQ4rD1pV0cC1dQ6uX3mQ5cP2qI1lQ6xG0fS1yP7sA2nN"
        }
    }
}
